{
    "me": "STCOL",
	"teams": {
		"STCOL": {
			"name": "St Colmans",
			"location": "St. Colman's Church, 111 Queensway, Lisburn, County Antrim BT27"
		},
        "ZONE": {
            "name": "Lisburn Zone",
            "location": "Magheragall Presbyterian Church, 8 School Ln, Upper Ballinderry, Lisburn, BT28 2NT"
        },
        "NRTDN": {
            "name": "North Down",
            "location": "Strean Presbyterian Church, West St, Newtownards BT23 4EN, UK"
        },
        "MNGHN": {
            "name": "Monaghan",
            "location": "Location"
        },
		"AGHAG": {
			"name": "Aghagallon",
			"location": "Aghagallon Community Centre, Aghalee Rd, Aghagallon, Craigavon BT67 0AR"
		},
		"STMAR": {
			"name": "St Mark's",
			"location": "St. Mark's Church, Ballymacash Rd, Lisburn BT28 3EZ, UK"
		},
		"EGLAN": {
			"name": "Eglantine",
			"location": "All Saints' Parish, Eglantine, Eglantine Road, Lisburn BT27 5RQ"
		},
		"STCLA": {
			"name": "St Clares",
			"location": "55 Chapel Rd, Glenavy, Crumlin BT29 4LX"
		},
		"ROCK": {
			"name": "Rock",
			"location": "11 Belsize Road, Lisburn, BT27 4AL"
		},
		"SUFFO": {
			"name": "Suffolk",
			"location": "Musgrave Park, 7JB, Stockmans Ln, Belfast BT9, UK"
		},
		"STJOS": {
			"name": "St Joseph's",
			"location": "St. Patrick?s Church, Chapel Hill, Lisburn BT28 1BW, UK"
		},
		"ANNAH": {
			"name": "Annahilt",
			"location": "The Church of the Acension Annahilt, 24 Glebe Road, Hillsborough"
		},
        "HILDE": {
            "name": "Hilden",
            "location": "36 Belfast Rd, Lisburn BT27 4AS"
        },
		"BROOM": {
			"name": "Broomhedge",
			"location": "St Mathews Church Hall, Lurganure Road, Lisburn BT28 2TST"
		}
	}
}
