{
	"me": "MCWIL",
	"location": "Belfast Indoor Bowls Club, 115 Milltown Rd, Belfast BT8 7XP, UK",
	"invite": "annette",
	"teams": {
		"MCWIL": {
			"name": "McWilliams",
			"location": "Belfast Indoor Bowls Club, 115 Milltown Rd, Belfast BT8 7XP, UK"
		},
		"BRIGG": {
			"name": "A Briggs",
			"location": "Belfast Indoor Bowls Club, 115 Milltown Rd, Belfast BT8 7XP, UK"
		},
		"DOYLE": {
			"name": "C Doyle",
			"location": "Belfast Indoor Bowls Club, 115 Milltown Rd, Belfast BT8 7XP, UK"
		},
		"HANNA": {
			"name": "W Hanna",
			"location": "Belfast Indoor Bowls Club, 115 Milltown Rd, Belfast BT8 7XP, UK"
		},
		"HORNE": {
			"name": "P Horner",
			"location": "Belfast Indoor Bowls Club, 115 Milltown Rd, Belfast BT8 7XP, UK"
		},
        "IRWIN": {
            "name": "S Irwin",
            "location": "Belfast Indoor Bowls Club, 115 Milltown Rd, Belfast BT8 7XP, UK"
        },
		"MARTI": {
			"name": "B Martin",
			"location": "Belfast Indoor Bowls Club, 115 Milltown Rd, Belfast BT8 7XP, UK"
		},
		"MCGLE": {
			"name": "G McGleave",
			"location": "Belfast Indoor Bowls Club, 115 Milltown Rd, Belfast BT8 7XP, UK"
		},
		"MCGET": {
			"name": "G McGettrick",
			"location": "Belfast Indoor Bowls Club, 115 Milltown Rd, Belfast BT8 7XP, UK"
		},
        "MOREL": {
            "name": "K Moreland",
            "location": "Belfast Indoor Bowls Club, 115 Milltown Rd, Belfast BT8 7XP, UK"
        },
		"NEILL": {
			"name": "J Neill",
			"location": "Belfast Indoor Bowls Club, 115 Milltown Rd, Belfast BT8 7XP, UK",
			"phone": "07749070387"
		},
		"TINSL": {
			"name": "L Tinsley",
			"location": "Belfast Indoor Bowls Club, 115 Milltown Rd, Belfast BT8 7XP, UK"
		},
		"TROLA": {
			"name": "J Trolan",
			"location": "Belfast Indoor Bowls Club, 115 Milltown Rd, Belfast BT8 7XP, UK"
		}
	}
}
